{
	"components": {
		"examples": {},
		"headers": {},
		"parameters": {},
		"requestBodies": {},
		"responses": {},
		"schemas": {
			"PingResponse": {
				"properties": {
					"message": {
						"type": "string"
					}
				},
				"required": [
					"message"
				],
				"type": "object",
				"additionalProperties": true
			},
			"IRule": {
				"properties": {
					"name": {
						"type": "string"
					},
					"description": {
						"type": "string"
					}
				},
				"required": [
					"name",
					"description"
				],
				"type": "object",
				"additionalProperties": true
			},
			"IRole": {
				"properties": {
					"name": {
						"type": "string"
					},
					"description": {
						"type": "string"
					},
					"rules": {
						"items": {
							"$ref": "#/components/schemas/IRule"
						},
						"type": "array"
					}
				},
				"required": [
					"name",
					"description",
					"rules"
				],
				"type": "object",
				"additionalProperties": true
			},
			"IUserResponse": {
				"properties": {
					"id": {
						"type": "string"
					},
					"name": {
						"type": "string"
					},
					"email": {
						"type": "string"
					},
					"roles": {
						"items": {
							"$ref": "#/components/schemas/IRole"
						},
						"type": "array"
					}
				},
				"required": [
					"id",
					"name",
					"email",
					"roles"
				],
				"type": "object",
				"additionalProperties": true
			},
			"IUser": {
				"properties": {
					"name": {
						"type": "string"
					},
					"email": {
						"type": "string"
					},
					"password": {
						"type": "string"
					},
					"roles": {
						"items": {
							"$ref": "#/components/schemas/IRole"
						},
						"type": "array"
					}
				},
				"required": [
					"name",
					"email",
					"password",
					"roles"
				],
				"type": "object",
				"additionalProperties": true
			},
			"IRoleResponse": {
				"properties": {
					"id": {
						"type": "string"
					},
					"name": {
						"type": "string"
					},
					"description": {
						"type": "string"
					},
					"rules": {
						"items": {
							"$ref": "#/components/schemas/IRule"
						},
						"type": "array"
					}
				},
				"required": [
					"id",
					"name",
					"description",
					"rules"
				],
				"type": "object",
				"additionalProperties": true
			}
		},
		"securitySchemes": {}
	},
	"info": {
		"title": "admin",
		"version": "1.0.0",
		"license": {
			"name": "ISC"
		},
		"contact": {}
	},
	"openapi": "3.0.0",
	"paths": {
		"/ping": {
			"get": {
				"operationId": "GetMessage",
				"responses": {
					"200": {
						"description": "Ok",
						"content": {
							"application/json": {
								"schema": {
									"$ref": "#/components/schemas/PingResponse"
								}
							}
						}
					}
				},
				"security": [],
				"parameters": []
			}
		},
		"/user/{id}": {
			"get": {
				"operationId": "GetUser",
				"responses": {
					"200": {
						"description": "Ok",
						"content": {
							"application/json": {
								"schema": {
									"$ref": "#/components/schemas/IUserResponse"
								}
							}
						}
					}
				},
				"security": [],
				"parameters": [
					{
						"in": "path",
						"name": "id",
						"required": true,
						"schema": {
							"type": "string"
						}
					}
				]
			},
			"delete": {
				"operationId": "DeleteUser",
				"responses": {
					"204": {
						"description": "No content"
					}
				},
				"security": [],
				"parameters": [
					{
						"in": "path",
						"name": "id",
						"required": true,
						"schema": {
							"type": "string"
						}
					}
				]
			},
			"patch": {
				"operationId": "UpdateUser",
				"responses": {
					"200": {
						"description": "Ok",
						"content": {
							"application/json": {
								"schema": {
									"$ref": "#/components/schemas/IUserResponse"
								}
							}
						}
					}
				},
				"security": [],
				"parameters": [
					{
						"in": "path",
						"name": "id",
						"required": true,
						"schema": {
							"type": "string"
						}
					}
				],
				"requestBody": {
					"required": true,
					"content": {
						"application/json": {
							"schema": {
								"$ref": "#/components/schemas/IUser"
							}
						}
					}
				}
			}
		},
		"/user": {
			"get": {
				"operationId": "GetUsers",
				"responses": {
					"200": {
						"description": "Ok",
						"content": {
							"application/json": {
								"schema": {
									"items": {
										"$ref": "#/components/schemas/IUserResponse"
									},
									"type": "array"
								}
							}
						}
					}
				},
				"security": [],
				"parameters": []
			},
			"post": {
				"operationId": "CreateUser",
				"responses": {
					"200": {
						"description": "Ok",
						"content": {
							"application/json": {
								"schema": {
									"$ref": "#/components/schemas/IUserResponse"
								}
							}
						}
					}
				},
				"security": [],
				"parameters": [],
				"requestBody": {
					"required": true,
					"content": {
						"application/json": {
							"schema": {
								"$ref": "#/components/schemas/IUser"
							}
						}
					}
				}
			}
		},
		"/role/{id}": {
			"get": {
				"operationId": "GetRole",
				"responses": {
					"200": {
						"description": "Ok",
						"content": {
							"application/json": {
								"schema": {
									"$ref": "#/components/schemas/IRoleResponse"
								}
							}
						}
					}
				},
				"security": [],
				"parameters": [
					{
						"in": "path",
						"name": "id",
						"required": true,
						"schema": {
							"type": "string"
						}
					}
				]
			},
			"patch": {
				"operationId": "UpdateRole",
				"responses": {
					"200": {
						"description": "Ok",
						"content": {
							"application/json": {
								"schema": {
									"$ref": "#/components/schemas/IRoleResponse"
								}
							}
						}
					}
				},
				"security": [],
				"parameters": [
					{
						"in": "path",
						"name": "id",
						"required": true,
						"schema": {
							"type": "string"
						}
					}
				],
				"requestBody": {
					"required": true,
					"content": {
						"application/json": {
							"schema": {
								"$ref": "#/components/schemas/IRole"
							}
						}
					}
				}
			},
			"delete": {
				"operationId": "DeleteRole",
				"responses": {
					"200": {
						"description": "Ok",
						"content": {
							"application/json": {
								"schema": {
									"$ref": "#/components/schemas/IRoleResponse"
								}
							}
						}
					}
				},
				"security": [],
				"parameters": [
					{
						"in": "path",
						"name": "id",
						"required": true,
						"schema": {
							"type": "string"
						}
					}
				]
			}
		},
		"/role": {
			"get": {
				"operationId": "GetRoles",
				"responses": {
					"200": {
						"description": "Ok",
						"content": {
							"application/json": {
								"schema": {
									"items": {
										"$ref": "#/components/schemas/IRoleResponse"
									},
									"type": "array"
								}
							}
						}
					}
				},
				"security": [],
				"parameters": []
			},
			"post": {
				"operationId": "CreateRole",
				"responses": {
					"200": {
						"description": "Ok",
						"content": {
							"application/json": {
								"schema": {
									"$ref": "#/components/schemas/IRoleResponse"
								}
							}
						}
					}
				},
				"security": [],
				"parameters": [],
				"requestBody": {
					"required": true,
					"content": {
						"application/json": {
							"schema": {
								"$ref": "#/components/schemas/IRole"
							}
						}
					}
				}
			}
		},
		"/rule/{id}": {
			"get": {
				"operationId": "GetRule",
				"responses": {
					"200": {
						"description": "Ok",
						"content": {
							"application/json": {
								"schema": {
									"$ref": "#/components/schemas/IRoleResponse"
								}
							}
						}
					}
				},
				"security": [],
				"parameters": [
					{
						"in": "path",
						"name": "id",
						"required": true,
						"schema": {
							"type": "string"
						}
					}
				]
			},
			"patch": {
				"operationId": "UpdateRule",
				"responses": {
					"200": {
						"description": "Ok",
						"content": {
							"application/json": {
								"schema": {
									"$ref": "#/components/schemas/IRoleResponse"
								}
							}
						}
					}
				},
				"security": [],
				"parameters": [
					{
						"in": "path",
						"name": "id",
						"required": true,
						"schema": {
							"type": "string"
						}
					}
				],
				"requestBody": {
					"required": true,
					"content": {
						"application/json": {
							"schema": {
								"$ref": "#/components/schemas/IRule"
							}
						}
					}
				}
			},
			"delete": {
				"operationId": "DeleteRule",
				"responses": {
					"204": {
						"description": "No content"
					}
				},
				"security": [],
				"parameters": [
					{
						"in": "path",
						"name": "id",
						"required": true,
						"schema": {
							"type": "string"
						}
					}
				]
			}
		},
		"/rule": {
			"get": {
				"operationId": "GetRules",
				"responses": {
					"200": {
						"description": "Ok",
						"content": {
							"application/json": {
								"schema": {
									"items": {
										"$ref": "#/components/schemas/IRoleResponse"
									},
									"type": "array"
								}
							}
						}
					}
				},
				"security": [],
				"parameters": []
			},
			"post": {
				"operationId": "CreateRule",
				"responses": {
					"200": {
						"description": "Ok",
						"content": {
							"application/json": {
								"schema": {
									"$ref": "#/components/schemas/IRoleResponse"
								}
							}
						}
					}
				},
				"security": [],
				"parameters": [],
				"requestBody": {
					"required": true,
					"content": {
						"application/json": {
							"schema": {
								"$ref": "#/components/schemas/IRule"
							}
						}
					}
				}
			}
		}
	},
	"servers": [
		{
			"url": "/"
		}
	]
}